{
  "$schema": "https://aka.ms/azure-quickstart-templates-metadata-schema#",
  "type": "QuickStart",
  "itemDisplayName": "Lition Node",
  "description": "This template allows you to deploy the Lition Maker tool to create and manage Lition side chains networks.",
  "summary": "This template deploys an Ubuntu VM with Git, Docker and the Lition Maker tool",
  "githubUsername": "pmosse",
  "dateUpdated": "2019-12-13"
}
